…
As an example, I have queried the data for the monthly average interest
rates for Treasury Bonds

``` r
avg_interest(security_class =  "Treasury Bonds")
```

    ## # A tibble: 273 × 4
    ##    date       security       avg_interest  year
    ##    <date>     <chr>                 <dbl> <dbl>
    ##  1 2001-01-31 Treasury Bonds         8.45  2001
    ##  2 2001-02-28 Treasury Bonds         8.39  2001
    ##  3 2001-03-31 Treasury Bonds         8.39  2001
    ##  4 2001-04-30 Treasury Bonds         8.38  2001
    ##  5 2001-05-31 Treasury Bonds         8.37  2001
    ##  6 2001-06-30 Treasury Bonds         8.36  2001
    ##  7 2001-07-31 Treasury Bonds         8.36  2001
    ##  8 2001-08-31 Treasury Bonds         8.32  2001
    ##  9 2001-09-30 Treasury Bonds         8.32  2001
    ## 10 2001-10-31 Treasury Bonds         8.31  2001
    ## # ℹ 263 more rows
…
  return(combined_data)
}
```

As an example, I have queried the data for the monthly average interest
rates for Treasury Bonds

``` r
debt_and_debt_limit(security_type = "Total Public Debt Outstanding", 
                    year_from = 2002, year_to = 2012,
                    debt_type = "Balance of Statutory Debt Limit")
```

    ## # A tibble: 132 × 3
    ##    date       total_marketable_mil total_nonmarketable_mil
    ##    <date>                    <dbl>                   <dbl>
    ##  1 2002-01-31             5937229.                 84108. 
    ##  2 2002-02-28             6003453.                 16846. 
    ##  3 2002-03-31             6006032.                 14892. 
    ##  4 2002-04-30             5984677.                 35184. 
    ##  5 2002-05-31             6019332.                    24.9
    ##  6 2002-06-30             6126469.                341687. 
    ##  7 2002-07-31             6159741.                307950. 
    ##  8 2002-08-31             6210482.                257165. 
    ##  9 2002-09-30             6228236.                238569. 
    ## 10 2002-10-31             6282528.                168716. 
    ## # ℹ 122 more rows
…
